<svg width="29" height="16" viewBox="0 0 29 16" fill="none" xmlns="http://www.w3.org/2000/svg">
<path d="M16.6908 5.35268C16.2433 4.75927 15.6813 4.26577 15.0395 3.90269C14.3977 3.53961 13.6897 3.31466 12.9593 3.24175C12.2288 3.16883 11.4915 3.2495 10.7929 3.47877C10.0942 3.70803 9.44909 4.08103 8.89735 4.57469L8.42068 4.20515C5.14601 1.85175 0.560514 3.8502 0.131517 7.88112C0.00101444 9.82309 -0.0323953 11.7706 0.0314179 13.716C0.0208904 13.9656 0.0607758 14.2148 0.148598 14.4481C0.236421 14.6814 0.370306 14.8937 0.541944 15.072C0.713582 15.2503 0.91931 15.3907 1.14636 15.4845C1.3734 15.5782 1.61692 15.6234 1.8618 15.6172C2.10146 15.6161 2.33844 15.5657 2.55849 15.4688C2.77854 15.372 2.97712 15.2307 3.14231 15.0536C3.30749 14.8765 3.43586 14.6671 3.51971 14.4381C3.60356 14.209 3.64115 13.9651 3.63022 13.7209C3.63022 12.3205 3.63022 10.9201 3.63022 9.51489C3.62637 9.0983 3.65506 8.68206 3.71602 8.27012C3.79291 7.84849 4.02343 7.4722 4.36124 7.21691C4.69905 6.96162 5.11908 6.84627 5.53687 6.89406C5.94527 6.92547 6.32842 7.10775 6.61449 7.40673C6.90056 7.70571 7.06991 8.10086 7.09079 8.5181C7.11463 9.03351 7.09079 9.54893 7.09079 10.0643C7.09079 11.3188 7.09079 12.5733 7.09079 13.8278C7.0859 14.1917 7.19199 14.5481 7.39437 14.8478C7.59676 15.1475 7.88545 15.3755 8.22048 15.5005C9.43597 16.0159 10.6753 15.1115 10.6991 13.6868C10.6991 12.0288 10.6991 10.3707 10.7468 8.71259C10.7629 8.31178 10.8829 7.92249 11.0948 7.58452C11.2965 7.2865 11.5888 7.06453 11.9265 6.95292C12.2642 6.8413 12.6286 6.84625 12.9633 6.96699C13.3408 7.07493 13.6709 7.31116 13.8989 7.63656C14.1269 7.96196 14.2391 8.35703 14.2169 8.75636C14.2169 10.4339 14.2169 12.1114 14.2169 13.7889C14.2169 14.0297 14.2634 14.268 14.3537 14.4904C14.444 14.7129 14.5764 14.9149 14.7432 15.0852C14.9101 15.2554 15.1082 15.3904 15.3262 15.4825C15.5443 15.5746 15.7779 15.6221 16.0139 15.6221C16.2499 15.6221 16.4836 15.5746 16.7016 15.4825C16.9196 15.3904 17.1177 15.2554 17.2846 15.0852C17.4515 14.9149 17.5838 14.7129 17.6741 14.4904C17.7645 14.268 17.8109 14.0297 17.8109 13.7889C17.8109 12.0725 17.8109 10.3853 17.8109 8.64452C17.8142 7.44943 17.4192 6.28868 16.6908 5.35268" fill="white"/>
<path d="M25.695 6.32487L25.1278 6.08661C25.6903 5.63927 26.2241 5.25514 26.7008 4.81752C27.1243 4.4774 27.4899 4.06832 27.7828 3.60679C28.6408 1.97302 27.4301 0.0718221 25.5091 0.0280605C23.7359 0.00374847 21.9675 0.00374847 20.1943 0.00374847C19.9771 -0.0115626 19.7592 0.0201443 19.5549 0.0967889C19.3505 0.173434 19.1644 0.293284 19.0087 0.448477C18.8529 0.60367 18.7311 0.790699 18.6512 0.997294C18.5713 1.20389 18.5352 1.42538 18.5451 1.64724C18.5239 1.87321 18.5511 2.10119 18.6248 2.31537C18.6985 2.52956 18.817 2.72483 18.9721 2.88764C19.1272 3.05046 19.3151 3.17692 19.5229 3.25828C19.7306 3.33964 19.9532 3.37394 20.1753 3.3588C21.0428 3.3588 21.9103 3.3588 22.7778 3.3588C22.9256 3.40743 23.0781 3.40743 23.3641 3.40743C22.1868 4.37991 21.1 5.30376 20.0275 6.21789C19.3363 6.80138 19.1266 7.43836 19.3697 8.16285C19.4988 8.52047 19.7394 8.82497 20.0546 9.02963C20.3697 9.23429 20.742 9.3278 21.1143 9.29579C22.0343 9.29579 22.959 9.29579 23.8789 9.29579C24.0853 9.25688 24.2974 9.26476 24.5004 9.31886C24.7034 9.37297 24.8923 9.47198 25.0536 9.60888C25.2148 9.74577 25.3446 9.91719 25.4337 10.111C25.5227 10.3048 25.5689 10.5162 25.5689 10.7302C25.5689 10.9442 25.5227 11.1556 25.4337 11.3494C25.3446 11.5432 25.2148 11.7146 25.0536 11.8515C24.8923 11.9884 24.7034 12.0874 24.5004 12.1415C24.2974 12.1956 24.0853 12.2035 23.8789 12.1646C22.6873 12.1646 21.4956 12.1646 20.304 12.1646C19.8862 12.1876 19.4931 12.3731 19.2053 12.6829C18.9176 12.9927 18.7573 13.4032 18.7573 13.83C18.7573 14.2567 18.9176 14.6672 19.2053 14.977C19.4931 15.2868 19.8862 15.4723 20.304 15.4954C21.5481 15.4954 22.7969 15.4954 24.041 15.4954C25.1339 15.4671 26.184 15.0565 27.0154 14.3323C27.8467 13.6082 28.4088 12.6145 28.6074 11.5179C28.7658 10.4443 28.5644 9.34753 28.0359 8.40513C27.5073 7.46273 26.6826 6.72978 25.695 6.32487" fill="white"/>
</svg>
