<svg width="36" height="36" viewBox="0 0 36 36" fill="none" xmlns="http://www.w3.org/2000/svg">
<circle cx="17.8641" cy="17.8641" r="16.8641" stroke="#303030" stroke-width="2"/>
<path d="M28.3811 12.5036C28.1178 11.5246 27.3459 10.7529 26.367 10.4893C24.5788 10 17.4257 10 17.4257 10C17.4257 10 10.2729 10 8.48465 10.4707C7.52463 10.7341 6.73393 11.5248 6.4706 12.5036C6 14.2917 6 18 6 18C6 18 6 21.727 6.4706 23.4964C6.73421 24.4752 7.5058 25.247 8.48479 25.5106C10.2917 26 17.426 26 17.426 26C17.426 26 24.5788 26 26.367 25.5293C27.346 25.2658 28.1178 24.4941 28.3814 23.5152C28.8518 21.727 28.8518 18.0188 28.8518 18.0188C28.8518 18.0188 28.8707 14.2917 28.3811 12.5036V12.5036ZM15.1483 21.4258V14.5742L21.0965 18L15.1483 21.4258Z" fill="#303030"/>
</svg>
